\contentsline {section}{\numberline {1}Charge Evacuation Oil and Refrigerant Measurement Technique}{2}
\contentsline {subsection}{\numberline {1.1}charge}{2}
\contentsline {subsection}{\numberline {1.2}oil}{2}
\contentsline {section}{\numberline {2}Refrigerant characteristic}{3}
\contentsline {subsection}{\numberline {2.1}weighing technique}{3}
\contentsline {subsection}{\numberline {2.2}Case Uncertainty Study}{4}
