\relax 
\bibstyle{acm}
\@writefile{toc}{\contentsline {section}{\numberline {1}Charge Evacuation Oil and Refrigerant Measurement Technique}{2}}
\@writefile{toc}{\contentsline {subsection}{\numberline {1.1}charge}{2}}
\@writefile{toc}{\contentsline {subsection}{\numberline {1.2}oil}{2}}
\newlabel{eq:refname1}{{1}{2}}
\@writefile{lof}{\contentsline {figure}{\numberline {1}{\ignorespaces scale}}{3}}
\newlabel{fig:scale}{{1}{3}}
\@writefile{toc}{\contentsline {section}{\numberline {2}Refrigerant characteristic}{3}}
\@writefile{toc}{\contentsline {subsection}{\numberline {2.1}weighing technique}{3}}
\citation{Deokar:2016}
\citation{Ashrae:1996}
\bibdata{bib_Juseok_Lee}
\bibcite{Deokar:2016}{1}
\bibcite{Ashrae:1996}{2}
\citation{Deokar:2016}
\citation{Ashrae:1996}
\newlabel{eq:refname2}{{2}{4}}
\@writefile{toc}{\contentsline {subsection}{\numberline {2.2}Case Uncertainty Study}{4}}
\@writefile{lot}{\contentsline {table}{\numberline {1}{\ignorespaces Parameter values for three cases}}{4}}
\newlabel{tab:table1}{{1}{4}}
