\relax 
\citation{latexcompanion}
\citation{einstein}
\citation{knuthwebsite}
\citation{latexcompanion}
\citation{knuthwebsite}
\bibstyle{abbrv}
\bibdata{sample}
\select@language{english}
\@writefile{toc}{\select@language{english}}
\@writefile{lof}{\select@language{english}}
\@writefile{lot}{\select@language{english}}
\@writefile{toc}{\contentsline {section}{\numberline {1}First Section}{1}}
